10002:
4.3
3.4
4.8
4.1
10003:
2.5
10004:
5.2
4.2
4.4
4.0
4.8
4.4
4.5
4.4
4.4
4.3
4.5
4.0
4.4
3.9
4.5
4.4
4.5
4.5
4.7
4.1
4.3
4.1
4.1
4.2
5.4
3.9
4.2
4.4
3.6
4.9
4.6
10005:
3.6
4.1
3.3
3.0
3.1
10006:
3.8
3.2
4.0
2.7
10007:
2.1
2.7
2.3
2.3
2.1
2.6
2.2
2.9
2.5
2.8
2.3
2.6
2.4
10008:
4.7
3.3
3.6
2.8
4.3
4.0
4.0
10009:
3.0
3.5
4.6
2.7
2.6
3.4
1001:
4.4
3.4
3.0
3.2
4.0
4.0
3.7
3.4
2.7
3.7
3.6
3.9
2.9
3.6
3.4
3.3
4.0
3.8
2.9
3.1
2.9
3.7
3.3
2.8
3.5
3.0
3.6
3.6
3.7
4.2
3.7
4.7
3.0
3.5
3.4
3.5
4.1
2.7
2.8
3.7
4.0
3.0
3.6
4.0
4.1
3.7
3.4
3.1
3.2
4.1
3.2
2.3
2.5
3.7
3.8
4.2
2.9
3.4
3.5
3.1
3.4
3.1
3.1
2.9
4.0
2.9
2.8
3.0
4.0
3.5
3.0
3.1
3.5
3.0
3.1
3.7
2.6
2.7
3.5
3.5
3.7
4.0
2.5
3.6
3.4
3.3
3.3
4.1
3.3
2.9
4.0
3.5
3.6
3.8
3.1
2.7
3.1
3.2
3.3
3.4
3.5
3.5
3.0
3.0
3.5
3.4
3.7
3.7
3.7
2.7
3.0
3.3
3.4
3.0
3.4
2.7
3.0
3.8
3.7
3.0
3.3
3.5
3.2
3.5
3.2
3.3
3.0
3.8
3.4
3.2
3.4
3.7
3.6
3.2
10010:
2.3
2.1
2.1
3.0
2.7
2.3
2.4
2.2
1.7
2.5
1.9
1.9
2.0
1.7
2.9
2.2
1.9
2.7
1.3
2.3
1.7
1.9
1.9
10011:
4.5
4.1
10012:
3.1
4.0
3.0
3.1
3.7
3.8
2.5
3.3
3.0
3.3
3.8
3.1
3.0
10013:
3.6
3.3
3.6
3.7
3.3
3.5
3.3
3.6
3.3
3.8
2.9
4.0
3.2
3.6
3.1
3.2
2.9
3.1
3.4
2.8
3.0
2.7
3.2
3.6
3.7
3.2
3.4
2.6
2.8
3.3
3.1
2.8
3.0
3.8
3.1
3.0
3.4
4.0
3.8
2.8
4.1
3.3
3.5
3.4
3.5
2.7
3.2
3.4
3.0
3.6
3.0
3.1
3.6
3.8
3.3
2.7
3.8
1:
3.8
3.4
3.7
4.8
3.8
4.0
3.5
3.8
4.1
3.6
3.1
3.7
4.1
4.1
2.9
4.0
3.7
4.6
4.2
4.3
3.2
5.1
3.6
10:
3.0
2.7
1000:
3.3
3.0
2.7
4.7
3.8
3.4
3.3
4.0
3.0
2.5
3.3
3.6
3.3
4.4
4.0
3.1
3.0
3.1
3.2
3.7
3.4
4.0
2.4
3.1
4.1
3.1
3.7
10000:
3.7
3.6
10001:
3.5
4.4
3.8
2.8
4.4
3.5
3.5
4.1
4.0
3.6
4.2
4.2
3.0
4.3
3.7
3.6
4.5
15034:
4.2
4.0
2.1
2.8
3.4
3.5
2.9
2.2
3.2
2.9
3.1
3.1
3.2
3.2
2.4
2.7
2.9
2.7
2.7
2.7
3.5
3.7
3.7
3.0
2.7
3.5
15035:
3.8
3.6
4.0
5.1
4.4
4.6
4.2
4.9
4.6
4.6
4.4
4.0
3.4
4.4
4.1
4.5
4.6
4.2
3.9
4.0
4.0
4.2
4.5
3.8
3.8
5.6
4.5
4.3
4.6
5.3
4.3
4.4
4.4
3.8
4.2
4.2
4.5
4.4
4.9
4.1
4.2
5.6
4.2
4.8
3.9
4.1
4.4
4.4
15036:
3.0
3.5
4.0
3.9
3.7
4.8
4.7
4.2
3.9
4.0
4.5
4.6
4.0
4.5
4.6
3.8
3.5
3.8
4.5
3.8
3.8
4.4
3.7
3.8
4.5
4.2
4.0
4.2
4.0
5.1
4.2
4.3
3.2
15037:
3.6
4.3
3.8
3.8
4.1
4.1
4.7
3.9
3.8
3.7
3.8
3.9
3.9
4.0
4.4
4.3
3.8
3.8
3.7
3.6
3.9
3.8
4.4
3.9
3.7
4.1
3.8
5.3
3.6
3.9
3.8
4.2
4.2
3.7
3.9
4.5
3.9
4.5
4.3
4.6
4.6
3.6
3.7
4.6
4.1
3.0
3.7
3.6
4.3
4.6
4.3
3.9
3.8
3.2
4.6
4.4
4.0
4.1
4.3
3.3
4.1
3.8
3.5
3.8
4.1
4.4
3.7
4.7
4.0
4.7
3.0
3.7
3.8
4.5
3.6
3.4
4.4
4.8
4.3
3.6
4.0
4.2
4.6
3.6
3.9
3.5
4.5
4.6
3.8
15038:
1.7
1.6
2.2
15039:
3.7
3.4
3.0
3.1
3.3
3.8
3.7
3.8
3.0
3.3
3.2
2.8
3.5
3.2
2.8
3.7
3.3
3.6
3.6
3.5
3.2
3.8
3.1
3.5
3.6
3.6
3.3
3.7
3.7
3.5
2.9
3.3
3.7
3.2
1.8
3.9
3.7
3.7
3.5
4.0
3.5
2.9
3.1
3.1
3.3
3.9
3.5
3.7
3.1
2.9
3.5
3.9
3.8
3.7
3.3
4.2
3.3
3.4
3.6
3.1
2.9
3.4
1504:
3.2
2.5
3.2
2.0
3.0
3.6
2.3
2.1
2.7
2.8
3.1
15040:
3.6
4.0
4.0
4.1
15041:
2.6
4.4
2.9
15042:
3.2
4.2
3.6
3.2
3.5
15043:
2.6
3.5
4.3
3.6
3.4
2.9
3.9
3.7
3.3
3.8
3.2
4.1
4.1
3.3
3.0
3.6
3.1
3.6
3.4
2.3
4.2
3.4
3.9
3.0
3.6
3.4
4.1
3.6
2.9
3.6
3.1
3.7
3.5
3.7
3.4
3.5
3.7
2.6
2.8
3.2
3.5
3.6
2.9
3.2
3.4
3.4
3.8
3.3
3.8
4.0
3.7
3.5
4.0
3.7
3.0
3.7
3.0
3.2
3.0
3.5
15044:
1.5
2.2
1.4
1.8
1.4
2.2
15045:
2.7
3.1
2.7
3.9
3.5
3.3
3.2
3.2
3.1
3.3
3.9
2.9
3.4
3.1
3.6
3.3
3.8
3.3
4.1
2.5
2.9
3.6
3.6
3.3
2.7
3.8
3.7
3.2
3.7
3.3
2.5
4.2
3.6
3.4
3.2
2.7
3.6
4.1
3.6
3.6
3.9
3.9
3.9
2.3
3.0
2.3
2.7
2.7
2.6
3.2
3.2
3.7
3.2
3.5
3.0
3.6
3.5
3.5
3.1
3.1
4.0
3.6
3.4
15046:
2.9
2.8
3.0
3.3
2.9
3.3
2.9
15047:
2.4
2.6
2.1
2.3
3.1
15048:
4.0
4.0
3.2
3.2
3.9
2.7
3.5
4.7
3.9
3.5
3.8
4.1
4.4
4.2
4.0
2.8
4.0
3.7
3.7
3.7
3.5
3.2
3.4
3.2
3.8
3.6
3.3
3.0
3.8
3.4
2.7
3.0
4.4
3.9
3.9
3.6
3.2
3.4
3.5
3.7
3.2
3.4
3.8
4.2
3.3
3.9
3.4
4.0
15049:
3.8
5.4
1505:
3.2
2.9
2.7
2.7
3.5
3.1
3.3
2.3
15050:
3.5
15051:
2.7
3.6
3.7
3.2
2.4
3.0
3.0
4.0
3.1
15052:
2.0
2.5
15053:
2.0
2.8
2.6
2.8
3.1
2.9
15054:
3.9
3.4
4.0
4.2
4.2
3.5
15055:
3.8
2.7
3.4
3.3
2.9
4.7
3.5
2.8
3.7
4.4
3.7
2.6
3.2
3.3
4.0
3.7
3.8
3.6
3.8
3.4
4.0
3.4
4.3
3.6
3.3
4.0
3.8
4.1
2.9
3.9
3.5
2.8
3.3
3.1
2.6
3.9
3.4
3.9
3.6
3.6
3.6
3.5
3.3
3.5
3.8
3.3
3.4
3.7
3.7
4.5
2.8
3.8
3.9
3.7
3.2
4.6
3.5
3.4
3.7
3.8
3.6
3.2
3.4
3.8
3.7
3.9
2.8
3.3
3.3
3.2
3.7
3.4
3.6
3.3
3.5
4.0
4.5
3.5
2.6
3.6
4.3
3.7
3.6
3.6
3.3
3.2
3.2
3.7
3.7
3.8
4.1
3.2
2.8
4.2
3.2
3.6
3.4
3.5
3.4
4.1
3.8
3.3
3.4
3.3
3.8
2.5
15057:
4.1
4.3
3.2
4.3
3.8
3.6
4.0
3.7
4.1
3.8
4.9
3.8
3.8
4.4
3.3
4.5
4.1
3.3
3.9
3.9
4.0
3.7
4.1
3.8
4.7
4.4
3.5
4.2
4.0
3.9
4.2
3.3
4.1
3.8
3.8
4.2
3.6
4.5
4.2
4.6
3.9
4.1
4.4
3.2
4.1
4.2
3.7
4.9
4.1
4.2
4.2
3.8
3.6
4.5
3.6
3.0
3.9
3.6
3.9
3.5
4.4
3.4
4.2
3.6
3.3
3.8
3.8
3.8
4.9
3.2
4.0
3.3
4.1
4.1
3.6
3.7
3.7
3.9
3.7
4.1
3.8
3.6
3.9
4.0
3.5
4.2
4.8
4.1
3.6
4.1
3.5
3.7
3.9
3.6
4.5
3.6
3.9
4.0
4.1
3.4
3.7
4.2
15058:
3.4
3.6
3.9
3.6
3.3
4.3
3.6
3.8
3.8
3.8
4.0
4.4
3.3
4.6
3.5
4.0
2.9
3.0
3.7
3.3
4.3
3.8
4.0
3.7
3.2
4.7
3.8
4.3
3.6
3.6
4.0
3.9
3.9
3.6
4.6
3.9
3.9
3.3
3.8
3.6
3.4
4.0
3.8
3.6
3.5
3.8
4.2
4.2
3.9
3.6
3.4
3.2
4.1
4.8
3.8
3.9
3.9
4.1
3.9
3.3
4.0
4.1
3.5
4.1
3.8
3.4
4.5
4.0
3.3
4.6
3.8
4.1
3.7
3.8
3.6
3.7
3.8
3.6
3.0
3.2
3.6
4.2
3.7
3.7
3.7
3.8
4.0
3.3
4.5
3.4
4.4
3.3
4.5
4.1
3.9
3.4
4.2
3.8
4.6
3.0
3.9
2.8
4.5
3.8
3.5
3.7
3.6
3.7
3.8
4.0
4.0
4.3
4.2
3.7
4.6
3.2
3.7
3.8
3.2
4.1
3.8
4.6
3.5
3.8
3.9
4.1
4.3
3.5
4.3
2.7
3.9
3.6
3.9
4.4
4.0
3.5
4.1
3.7
3.7
4.2
15059:
1.5
1506:
3.7
4.3
4.3
3.7
4.4
3.3
3.8
2.8
4.7
4.3
3.5
3.3
4.3
4.3
4.2
3.6
3.5
3.7
3.5
3.9
3.9
3.4
4.7
4.2
3.4
3.9
3.9
4.1
3.6
3.3
3.2
4.8
4.3
3.7
4.1
4.0
3.1
3.3
4.3
3.3
4.0
4.9
3.1
3.7
3.5
4.0
4.0
3.9
3.3
3.8
4.2
4.9
3.1
4.7
3.6
5.1
3.7
15060:
2.5
1.9
15061:
3.0
3.6
3.2
15062:
4.4
4.5
4.5
3.6
3.6
4.1
4.3
4.1
4.7
5.0
4.4
4.4
3.3
3.7
4.2
4.2
4.0
4.7
4.5
4.4
4.4
3.8
4.2
4.5
2.9
4.3
3.3
3.3
3.9
4.5
3.4
3.8
4.1
4.0
4.3
3.9
4.6
4.4
2.0
4.0
3.9
4.0
4.0
4.0
4.3
4.3
3.7
4.0
3.3
4.3
3.5
4.2
3.9
4.0
4.3
3.6
4.2
3.5
3.6
3.8
2.8
4.0
3.7
4.4
4.7
4.2
3.8
4.5
4.0
4.4
3.7
4.3
3.3
4.0
3.5
4.3
3.7
4.7
4.3
3.8
4.6
3.7
4.5
4.4
4.9
3.4
3.4
3.7
3.9
3.7
4.1
2.9
4.7
3.6
3.7
3.4
3.9
3.3
4.1
3.5
2.9
3.8
3.9
4.1
3.8
4.3
3.4
4.3
4.0
3.9
3.5
2.8
4.5
3.7
4.4
3.9
3.5
3.7
3.1
3.0
3.2
3.7
4.1
3.0
4.0
5.0
4.7
4.0
3.1
3.6
3.6
4.2
4.3
4.0
4.3
3.8
4.1
3.9
4.2
4.0
4.1
3.1
4.5
4.8
4.8
4.5
4.8
3.3
4.0
4.1
4.7
3.2
3.4
4.8
3.7
3.6
4.5
4.1
3.7
4.4
4.2
3.8
3.9
3.6
3.9
3.6
4.4
4.5
4.2
4.6
4.1
4.1
4.2
4.1
4.0
4.2
4.0
4.3
4.1
4.8
4.3
4.2
3.8
4.7
3.6
3.2
3.9
4.4
3.6
4.1
4.5
3.5
3.8
3.6
4.7
3.8
4.2
3.9
4.7
4.9
3.7
3.9
4.2
3.2
4.0
3.7
15063:
4.0
3.6
3.5
3.0
3.4
3.6
3.4
3.0
4.4
4.3
2.6
3.8
3.9
3.7
3.7
3.2
3.4
2.9
3.5
2.8
3.0
3.0
3.7
3.7
3.4
2.7
3.1
3.3
3.4
3.4
2.5
3.9
2.9
2.8
2.8
3.3
3.1
3.1
2.9
3.3
2.7
2.5
3.3
3.3
3.8
3.2
3.2
3.4
3.1
4.2
2.5
3.4
2.8
3.4
3.1
2.2
2.7
2.8
3.1
3.2
3.2
3.8
3.5
2.8
3.4
2.3
3.2
4.2
3.2
3.2
2.9
4.1
3.6
2.5
3.7
3.3
4.4
2.9
3.6
4.1
4.0
3.3
3.4
3.4
3.5
3.4
3.6
3.0
2.9
3.7
3.3
3.1
3.3
3.1
3.2
3.4
3.9
2.6
3.6
4.1
3.5
3.6
2.9
2.6
3.6
3.3
3.9
4.1
3.0
3.4
3.1
4.1
4.0
3.5
2.8
2.9
3.5
3.0
3.8
3.0
3.3
3.5
3.3
3.3
3.6
3.2
3.3
3.4
3.4
2.5
2.3
3.6
3.5
3.5
3.2
4.3
3.7
3.6
3.7
3.0
3.0
2.8
3.5
3.2
3.8
4.5
4.2
3.6
3.4
3.2
3.7
3.3
3.6
3.0
3.9
3.6
3.5
3.3
3.4
3.2
3.5
4.3
2.8
4.0
2.4
3.4
3.5
3.0
3.4
2.7
3.6
2.7
3.5
3.5
3.4
3.6
2.6
3.9
3.3
3.3
2.9
3.4
3.1
3.5
3.4
3.7
3.1
2.8
2.7
3.1
3.5
3.9
3.6
3.6
3.4
3.6
3.0
3.4
4.0
3.9
3.4
2.8
3.2
3.7
4.1
3.1
3.1
3.3
2.7
3.6
3.2
3.4
3.3
4.3
3.2
3.2
3.6
3.5
4.0
3.8
3.4
4.4
4.0
3.3
3.4
3.6
3.7
3.8
3.1
3.0
3.2
3.9
3.6
3.8
3.5
3.3
3.8
3.1
3.4
4.2
3.7
2.8
3.0
3.3
3.6
3.6
3.5
2.6
3.7
2.3
3.4
3.4
4.0
3.5
2.8
2.9
3.3
4.5
3.3
3.3
3.0
3.0
3.3
2.9
2.8
3.8
2.6
4.1
3.2
3.6
3.6
3.3
3.5
2.7
3.9
3.0
3.9
3.0
2.4
2.8
3.6
2.8
3.3
4.0
2.7
3.4
3.1
4.5
3.7
3.6
3.7
3.2
4.0
3.6
3.7
4.2
3.2
3.4
3.0
4.7
4.2
0.97
