6437:
2.9
3.3
3.3
3.1
3.3
3.3
3.2
3.3
3.2
3.1
3.5
3.6
3.7
3.2
3.2
3.1
3.2
3.0
2.8
12870:
3.5
4.0
4.6
4.2
4.3
4.0
3.9
4.1
4.1
4.2
4.0
4.2
4.5
4.1
3.9
4.4
2699:
3.4
3.4
3.6
3.7
3.2
3.3
3.7
3.4
3.5
3.3
3.2
3.4
3.1
3.3
3.6
3.7
3.6
3.1
3.5
3.5
5515:
3.7
4.0
4.0
3.8
3.5
4.1
4.1
3.9
3.7
4.3
3.8
4.0
4.2
3.7
3.8
4.1
3.9
4.0
13673:
3.5
4.0
4.2
4.1
4.0
4.0
3.9
4.2
3.9
3.9
4.2
10231:
3.7
3.6
3.4
3.8
3.8
3.5
3.8
3.9
3.9
3.7
4.1
3.6
3.7
3.6
3.6
3.7
3.4
2114:
4.1
4.0
4.2
4.3
4.0
4.1
4.3
4.5
4.1
4.1
4.1
4.0
3.8
6974:
4.3
4.1
4.0
3.9
4.6
3.8
3.9
3.9
4.1
4.2
4.2
3.8
4.4
3.6
4.0
4.0
4.1
3371:
3.9
3.5
3.7
3.8
4.1
3.5
3.7
3.6
4.1
3.8
4.3
3.7
4.0
3.9
3.9
3.3
9939:
3.3
3.8
3.4
4.0
3.5
3.4
3.6
4.1
3.5
3.6
3.8
3.4
3.3
3.6
4.2
3.4
3079:
4.2
4.3
3.7
4.2
4.0
4.0
4.4
4.1
4.2
3.8
4.0
3.9
3.9
4.5
4.0
4.5
4.2
4.3
4.0
4.0
3254:
3.5
3.3
3.5
3.2
3.3
3.4
3.4
3.6
3.0
3.5
3.5
3.1
3.6
3.4
3.1
3.6
3.5
3.3
3441:
3.2
3.3
3.0
3.1
3.3
3.5
3.7
3.3
3.4
2.8
3.4
2.9
3.3
3.3
3.4
3.2
3.4
3.5
17187:
3.7
3.9
4.1
4.4
4.2
4.1
3.8
4.1
3.8
3.6
3.9
3.9
4.1
3.9
3.8
3.6
3.6
3.9
3.9
4330:
4.0
3.9
3.4
3.8
3.6
3.6
3.7
3.7
3.8
4.1
4.0
3.7
2660:
3.6
3.7
4.0
4.0
3.7
3.8
3.7
4.0
3.4
3.7
4.0
4.2
3.5
3.5
3.9
3.8
13643:
3.1
3.4
3.4
3.4
3.6
3.4
3.4
3.3
3.3
3.2
3.3
2.8
3.7
3.5
3.4
3.2
3.4
2.8
3.2
3.2
11607:
4.1
4.2
4.4
4.2
3.7
3.8
4.0
3.9
4.0
4.3
4.0
4.2
4.3
4.4
4.2
3.7
4.0
3.9
1518:
3.7
3.8
3.9
4.1
3.9
3.9
3.4
3.6
3.4
3.6
3.3
3.7
3.9
3.8
3.7
4972:
3.7
4.1
3.4
3.9
3.1
3.4
3.0
3.5
3.4
3.2
3.5
3.3
3.3
3.6
4.0
4.1
3.7
3.4
3.4
3.6
4284:
3.9
4.4
4.0
4.0
3.9
3.9
4.5
4.1
4.5
3.6
4.0
3.9
3.9
4.1
3.9
4.1
4.2
7827:
3.8
3.4
3.6
2.8
3.6
3.5
4.0
3.3
4.0
3.7
3.6
3.7
3.8
11077:
3.1
4.0
3.6
3.4
3.9
3.6
3.5
3.4
3.5
3.4
3.4
3.5
5055:
3.4
3.6
3.6
3.6
3.4
3.9
3.6
3.6
3.6
3.4
3.8
3.7
3.8
4.0
3.6
4.0
3.6
4.0
11911:
3.6
3.7
4.2
3.2
3.8
3.4
4.0
3.7
3.8
3.6
3.6
4.1
3.6
3.5
3.8
3.8
3.3
3.8
3.7
3.9
5472:
3.6
3.6
4.1
3.5
3.7
3.8
3.7
3.6
3.8
3.8
3.8
3.5
3.7
4.2
3.5
4.1
3.6
3.6
3.7
3.8
3.3
1843:
3.6
3.5
3.5
3.6
3.6
3.3
3.4
2.7
3.4
3.7
3.5
3.6
3.2
3.2
3.8
3.0
3.2
3.4
3.5
3.7
7880:
3.6
4.4
3.4
3.6
4.0
3.8
4.1
4.0
3.8
3.9
3.7
4.0
4.3
3.8
3.9
3.6
3.9
3.6
3.5
3.9
3.7
6255:
3.1
3.8
2.7
3.6
3.5
3.0
3.5
3.2
3.4
3.2
3.4
3.5
3.5
3.2
2152:
3.0
3.4
3.8
3.7
3.5
3.5
3.1
3.5
3.6
4.0
3.5
3.7
3.9
3.4
3.8
3.5
3.6
13721:
3.1
3.6
2.9
3.0
3.4
3.5
3.3
3.2
3.0
3.5
3.2
3.5
3.6
580:
3.2
3.2
3.6
3.4
3.6
3.6
3.6
3.3
3.5
3.4
3.3
3.4
3.3
3.8
3.5
3.3
3.5
3.9
3.1
1571:
3.6
3.8
3.8
3.6
3.9
3.7
3.6
3.7
3.5
4.0
3.6
3.6
3.8
3.6
5071:
3.4
4.1
3.8
3.8
3.6
3.5
4.0
3.6
3.0
3.8
3.6
2186:
3.4
3.7
3.7
3.9
3.8
3.7
3.7
4.0
3.7
3.8
3.6
3.5
3.6
4.2
17506:
3.3
3.0
3.2
4.0
3.4
3.3
3.8
3.5
3.3
3.2
3.1
3.4
3.4
3.2
3.5
3.4
3.0
12333:
3.8
3.9
3.9
3.5
3.4
14349:
3.6
3.5
3.6
3.3
3.5
3.6
3.6
3.2
3.2
3.6
3.4
3.4
3.6
3.2
3.8
3.4
3.2
3.6
3.5
3.1
406:
3.9
3.5
3.7
3.9
3.7
3.7
3.5
3.2
3.5
3.7
3.7
3.7
3.9
3.8
3.8
3.2
4.0
4.1
3.8
3.7
4.0
788:
3.8
3.6
3.6
3.8
3.7
3.6
3.8
3.8
3.8
3.8
3.8
3.8
3.9
3.7
3.4
3.6
3.5
4.0
3.7
15425:
3.4
3.2
3.8
4.0
3.8
3.5
4.1
3.7
3.5
3.6
3.5
3.6
3.9
4.3
3.6
3.8
6003:
4.0
3.7
3.7
3.9
3.7
3.8
3.5
4.0
3.5
3.7
3.4
3.8
14198:
3.7
3.9
4.4
4.3
3.7
4.1
3.7
3.7
3.7
3.6
3.7
4970:
3.0
3.2
3.4
3.3
3.5
3.2
3.3
3.7
3.9
3.5
3.5
3.7
3.8
3.4
3.6
3.6
3.3
3.5
752:
3.6
4.1
3.9
3.7
4.0
3.9
3.7
3.9
4.0
4.2
4.0
4.1
4.1
3.8
4.1
3.8
4.2
4.0
3.7
3.9
886:
3.7
4.0
4.0
3.8
3.7
4.1
3.9
4.3
4.2
3.9
3.4
4.0
4.2
3.7
12721:
3.6
3.7
3.6
3.9
3.9
3.8
4.2
3.4
4.1
3.8
4.2
4.0
4.0
4.0
3.6
3713:
3.6
3.9
3.9
3.5
3.7
3.5
3.4
3.4
4.0
3.4
3.8
3.7
3.5
3.6
3.5
8027:
3.4
3.3
3.4
3.3
3.2
3.5
3.5
3.5
3.6
3.2
3.6
3.6
3.4
3.2
2.6
3.5
3.4
329:
3.4
3.6
3.8
3.5
3.7
3.8
3.6
3.7
3.6
3.5
3.7
15634:
4.1
3.6
4.0
4.0
3.7
3.7
3.9
4.0
4.0
3.7
3.8
3.7
3.7
3.6
12694:
3.8
3.6
3.7
3.4
3.7
3.5
3.5
4.0
3.3
3.1
3.9
3.3
3.2
3.4
3.7
3.5
3.2
3.5
3.4
3.8
3.5
4505:
2.4
3.2
2.6
3.2
2.6
2.7
3.1
2.8
3.5
3.3
3.2
2.4
2.7
2.7
2.9
985:
3.6
3.9
3.6
4.0
3.5
3.9
3.8
3.9
3.8
3.7
3.8
3.8
3.8
3.7
3.6
3.7
5401:
3.6
3.4
3.7
3.6
3.3
3.5
3.8
3.4
3.5
3.3
3.8
3.5
3.9
3.6
3.6
3.1
7914:
3.7
3.4
3.8
3.5
3.5
3.6
3.9
3.6
4.0
3.6
3.7
4723:
4.4
3.9
4.0
3.6
3.5
3.7
3.8
3.9
3.8
3.8
3.7
3.9
3.6
3.6
3917:
3.5
3.9
3.8
3.8
3.7
3.6
3.6
3.6
3.6
3.8
3.2
3.7
3.5
3.4
3.8
4.0
3.5
3.6
3.8
3.6
3.6
13847:
3.9
4.2
4.0
3.5
3.9
4.2
3.8
3.6
3.8
3.8
3.7
4.0
4.1
4.1
3.7
3.7
3256:
3.6
3.4
3.7
3.6
3.3
3.6
3.4
3.5
3.5
3.6
3.8
3.2
3.0
3.4
3.5
3.5
3.0
3.9
3.5
4.1
3.6
9886:
3.7
3.4
3.7
3.7
3.8
3.8
3.4
3.7
3.5
3.7
3.4
3.5
3.8
3.4
3.6
3.8
3.6
3.3
3.5
4.0
3.4
2200:
3.3
3.4
3.5
3.4
3.6
3.3
3.6
3.7
3.2
3.8
3.1
3.6
1890:
3.5
3.3
3.7
3.7
3.8
3.9
3.6
4.1
3.9
3.5
3.7
9471:
4.0
3.8
3.9
3.8
3.3
4.1
3.6
3.9
3.5
3.7
3.7
4.0
3.7
3.7
4.0
3.6
3.8
15078:
3.7
3.6
4.0
3.8
3.4
3.6
3.3
3.8
3.7
3.3
3.7
4.0
2095:
3.7
3.8
3.6
3.9
3.6
3.9
3.7
3.8
4.0
3.7
4.3
3.8
3.4
3.5
3.6
5636:
3.3
3.9
4.0
3.8
3.2
3.7
4.0
3.9
4.0
3.9
3.8
3.8
3.8
3.9
3.7
3.7
11234:
3.8
3.3
3.5
3.8
3.5
3.6
4.1
4.1
3.4
3.7
3.4
3.7
3.8
4.0
3.8
3.8
3.6
3689:
3.5
3.1
3.6
3.7
3.4
3.5
3.3
3.5
3.7
3.5
3.7
3.7
3.8
5924:
3.9
3.6
3.7
3.9
4.1
3.9
3.7
3.7
3.3
3.9
3.7
3.8
3.5
3.9
4.2
4.0
3.9
3.6
1962:
3.7
3.7
3.8
3.7
3.8
3.6
3.8
4.2
3.5
3.8
3.5
3.9
3.6
3.9
3.5
3.2
3.7
3.1
3.9
3.9
748:
3.8
3.3
3.9
4.2
3.5
4.2
3.9
3.9
3.6
4.0
3.9
4.4
3.9
3.9
3.6
3.8
3.6
3.6
3.4
6206:
3.7
3.5
3.7
3.7
2.9
3.7
3.7
3.5
3.8
3.7
3.6
3.8
760:
4.0
3.6
4.2
3.8
3.8
3.6
3.8
3.9
4.2
3.9
3.6
3.4
3.9
3.9
4.3
3.9
3.8
3.8
3.8
4.1
3.8
10080:
4.4
4.3
4.4
4.1
3.8
3.9
3.9
4.1
4.5
4.0
4.0
4.2
14031:
4.5
4.0
4.3
4.4
4.2
4.5
4.2
4.2
4.2
4.4
4.2
4.3
4.4
17405:
3.3
3.5
3.8
3.9
3.4
3.2
3.5
3.6
3.6
3.4
4.0
3.6
3.7
3.7
3.4
3.6
3.5
4.2
3.6
3333:
3.6
3.7
3.4
3.1
3.4
3.5
3.4
3.6
3.4
3.2
3.7
4.1
3.3
3.3
3.5
4.0
3.2
175:
3.6
3.7
3.8
4.0
4.0
3.2
4.1
4.0
4.0
4.0
4.0
3.4
6014:
3.5
3.3
3.5
3.4
3.5
3.4
3.6
3.6
3.0
3.2
3.5
3.7
3.5
3.2
2.9
3.5
3.5
3.7
3.7
3.8
191:
3.7
4.0
4.0
4.1
3.8
3.8
3.8
4.1
3.6
3.6
3.9
3.7
3.7
4.0
2391:
3.5
3.8
3.6
3.4
3.7
3.3
3.4
3.7
3.3
3.6
3.3
3.8
3.4
3.6
3.8
3.8
3.2
3.6
6721:
3.2
3.6
3.2
3.6
3.5
3.2
3.3
3.2
3.4
3.7
3.6
8489:
2.8
2.8
2.9
2.6
2.6
2.6
2.9
2.9
2.2
2.7
2.7
2.6
2.9
2.6
2.7
3.0
2.5
2.8
1590:
3.3
3.7
4.0
3.6
3.9
3.9
3.5
4.0
3.7
3.7
4.0
3.6
241:
4.2
4.2
4.0
3.8
3.8
3.9
3.9
3.7
4.1
4.0
4.0
4.1
4.4
4.0
4.0
3.9
4.4
6134:
3.9
3.7
4.2
3.6
4.0
4.0
3.4
3.6
3.2
3.7
3.5
3.8
3.9
3.8
3.7
3.5
3.5
4.2
4.1
3.7
3.4
15124:
4.0
3.7
4.2
3.6
3.7
3.5
3.8
3.9
3.6
3.8
3.4
17557:
3.5
3.6
4.3
3.8
4.2
4.2
3.5
3.6
3.9
3.6
3624:
3.8
3.6
4.0
3.8
4.2
4.0
3.6
3.4
4.1
4.0
3.7
3.6
3.7
3.8
3.7
3.6
3.7
3.9
3.8
4.3
5519:
4.0
4.3
4.1
3.8
4.2
3.9
4.1
4.0
4.1
4.0
3.8
3.8
4.3
4.1
4.2
4.2
3.7
13469:
3.7
3.1
3.5
3.8
3.6
3.8
3.4
3.7
3.6
3.4
3.4
3.0
13081:
3.6
3.6
3.6
3.6
3.9
3.4
3.5
4.0
3.4
3.4
3.6
3.3
10036:
3.9
3.7
3.9
3.9
3.4
3.7
4.2
3.8
3.7
3.5
3.9
3.6
3.8
4.2
3.8
3.7
3.8
4.1
3.8
2153:
3.6
3.7
3.5
4.0
3.6
3.9
3.8
3.5
3.6
3.9
3.3
3.8
3.5
4.1
3864:
4.2
4.1
3.7
4.0
4.0
4.3
4.2
3.8
4.1
3.9
3.9
4.3
3.7
4.2
3.6
3180:
3.6
3.3
3.7
3.8
4.0
3.7
4.3
3.8
3.5
3.9
4.0
3.9
3.8
3.6
3.8
2146:
3.5
3.7
3.4
4.0
3.7
3.5
3.7
3.2
3.8
3.2
3.8
295:
3.4
3.5
4.0
3.9
3.5
3.3
3.5
3.8
3.6
4.0
3.1
3.4
3.8
3.7
3.4
3.3
3.3
3.7
3.5
3.9
6291:
3.3
3.0
3.6
3.3
3.6
3.1
3.5
3.0
3.3
3.8
3.5
3.6
3.7
3.5
3.5
3.9
3.4
3.2
3.6
3.4
3.5
16278:
4.0
3.9
3.5
3.8
4.2
3.8
3.9
4.1
3.9
4.3
4.1
3.9
3282:
3.8
3.5
3.8
3.4
3.6
3.5
3.9
3.5
3.6
3.4
3.5
3.6
3.7
3.6
3.9
3.0
3.4
3.6
5094:
3.8
3.8
3.6
4.1
3.7
3.7
3.9
3.8
3.9
4.3
4.0
3.7
3.7
8101:
2.8
3.1
2.4
2.8
2.8
2.8
2.9
2.5
2.9
3.4
3.4
3.2
1307:
3.5
3.5
3.4
3.6
3.5
3.5
3.6
3.4
3.4
3.6
3.5
3.9
3.3
2386:
3.3
3.4
3.2
3.4
3.4
3.6
3.4
3.3
3.8
3.3
3.2
3.3
3.1
3.5
3.3
3.1
3427:
4.0
3.6
3.5
3.5
3.4
3.8
3.8
3.4
3.7
3.6
3.7
2.9
3.3
2131:
2.7
2.9
2.7
3.1
2.0
2.8
2.8
2.9
2.9
3.5
2.7
2.5
2.7
2.8
3.0
14671:
3.6
4.0
3.5
3.9
3.7
3.8
3.8
3.4
3.9
3.9
3.6
3.7
3.9
4.0
3.7
3.6
3.8
3.8
1905:
4.1
4.0
3.8
3.9
3.7
3.7
3.9
4.0
3.8
4.0
3.9
4.5
4.0
1145:
3.6
3.7
3.8
3.6
3.8
3.5
3.7
3.6
3.2
3.4
3.6
14729:
4.0
4.1
4.5
4.4
4.1
4.1
4.0
4.7
4.7
3.5
3.9
4.2
3.8
3.7
4.0
4.6
11812:
4.1
3.8
3.6
4.0
4.2
3.9
3.7
3.9
4.2
3.8
4.1
3.7
4.1
4.2
4.4
2122:
3.3
3.8
3.7
3.6
3.6
3.7
3.7
3.8
3.6
3.6
3.8
2.7
3.6
3.3
3.5
0.99
