1:
3.566
3.532
4.25
10002:
3.585
4.291
3.8395
10005:
3.844
3.4015
3.3335
10006:
3.5135
3.895
3.258
10007:
3.2119999999999997
3.05
2.9859999999999998
10008:
3.5825
3.651
3.388
10009:
3.6185
4.198
3.2125
1001:
3.5775
3.7504999999999997
3.324
10010:
2.8495
2.87
3.2875
10013:
3.362
3.504
3.6435000000000004
10014:
3.649
3.0735
3.7415
10015:
3.472
3.2800000000000002
3.6105
10016:
2.75
2.943
3.0774999999999997
10017:
3.4335
3.4459999999999997
10018:
10019:
2.6515
3.7215
3.349
1002:
3.17
3.503
3.6095
10020:
3.915
3.7720000000000002
3.9779999999999998
10021:
3.2045
3.2835
2.7285
10022:
3.5075
3.2824999999999998
3.2575
10023:
3.7835
3.8049999999999997
3.6285
10024:
3.8125
3.601
3.7535
10028:
3.6365
3.5084999999999997
4.015
10029:
3.847
3.835
3.222
10031:
3.2055
3.653
2.9935
10032:
4.2485
3.9320000000000004
3.987
10033:
3.5955000000000004
3.245
3.7525
10036:
3.5555000000000003
3.6495
3.5140000000000002
10037:
3.3674999999999997
3.5614999999999997
3.816
10038:
3.3609999999999998
3.452
3.3535
10040:
3.4605
3.83
10041:
10042:
3.8145000000000002
4.128500000000001
3.9045000000000005
10043:
3.907
3.8339999999999996
4.13
10044:
3.667
3.4455
3.5300000000000002
10047:
4.305
3.8795
4.21
10048:
3.402
3.261
3.263
10049:
2.7800000000000002
2.573
1005:
10050:
3.1155
3.3099999999999996
3.024
10051:
3.2965
3.3495
3.8315
10052:
3.4195
3.5170000000000003
3.196
10053:
3.77
3.4975
3.4735
10054:
3.3435
3.223
3.2625
10055:
3.5605
3.621
3.7634999999999996
10056:
3.4165
3.421
3.7735
10057:
3.3825
3.2035
3.5315000000000003
1006:
3.997
3.6215
4.0565
10060:
2.2455
3.9865
3.39
10061:
3.91
4.2515
4.109999999999999
10064:
3.176
3.3385
10065:
10066:
3.4405
3.09
3.2670000000000003
10067:
3.503
3.942
3.6654999999999998
10068:
3.9625000000000004
3.6189999999999998
3.8865
10069:
2.8975
2.0835
1007:
10070:
2.8395
2.4924999999999997
10071:
10072:
4.0215
4.0825
4.0845
10073:
3.708
3.455
3.615
10074:
3.74
3.807
3.8815
10077:
4.2765
3.709
3.4745
10078:
3.0045
3.0275
3.531
10079:
3.7569999999999997
3.9234999999999998
4.0365
1008:
3.871
3.7235
3.1955
10080:
3.975
4.062
3.8680000000000003
10081:
3.6505
3.5955
3.7605
10082:
2.903
3.4124999999999996
3.6624999999999996
10083:
3.6870000000000003
3.5839999999999996
3.5380000000000003
10084:
3.5265
3.5375
4.0875
10085:
3.4005
3.4975
3.164
10088:
3.7095000000000002
3.8365
3.0
10089:
3.4135
3.0235
3.6835
10091:
3.1365
3.318
3.5115
10092:
3.6
3.987
3.979
10094:
3.6775
3.989
3.67
10095:
3.427
3.7095000000000002
3.9985
10096:
3.6895
3.3545
3.6319999999999997
10097:
3.0694999999999997
2.646
2.864
10098:
3.221
3.0140000000000002
3.1319999999999997
10099:
3.825
4.288
4.439
101:
3.0715
3.4775
3.4459999999999997
10101:
3.6595
4.005
3.6624999999999996
10102:
3.2035
3.6725
3.302
10103:
3.6929999999999996
3.6159999999999997
3.747
10106:
3.6085000000000003
3.351
3.6195000000000004
10107:
3.633
3.572
3.1085000000000003
10108:
2.714
2.7575
10109:
1011:
3.6215
3.5735
3.7135
10112:
4.0235
3.6865
3.6385000000000005
10113:
3.7039999999999997
3.9935
3.6775
10114:
3.1535
3.6195
3.298
10115:
3.2865
2.8845
10116:
10117:
3.4575
3.652
3.8685
1012:
3.7355
3.7895000000000003
4.211
10120:
3.245
3.82
3.359
10121:
4.151
4.1419999999999995
3.7045
10122:
2.9405
3.5095
3.6215
10123:
3.2555
3.67
3.6295
10124:
3.1654999999999998
3.045
3.449
10125:
3.3015
4.293
4.0205
10126:
3.7415000000000003
3.5515
3.6405000000000003
10127:
3.513
3.5869999999999997
10128:
10129:
3.364
3.4325
3.6515000000000004
1013:
3.8920000000000003
3.6595
3.877
10130:
3.7865
3.5705
3.7255000000000003
10131:
3.8865
3.6945
3.7045000000000003
10132:
3.6185
3.4845
3.1725000000000003
10133:
3.2375
2.7765000000000004
2.7165
10134:
3.79
4.3065
4.473
10135:
3.5759999999999996
3.7465
3.6535
10136:
3.6125
3.4290000000000003
3.79
10137:
3.5010000000000003
3.9779999999999998
3.757
10138:
3.002
3.4395
10139:
1014:
2.9204999999999997
3.2154999999999996
3.3754999999999997
10140:
4.038
3.5244999999999997
3.9225
10141:
4.077999999999999
4.0575
4.2155000000000005
10142:
3.691
3.297
3.8315
10143:
3.7085
2.778
4.06
10144:
3.819
3.396
3.3920000000000003
10145:
2.9475
3.356
3.2965
10146:
3.2455
3.5055
3.5195
10147:
3.947
3.9350000000000005
4.0105
10148:
2.9154999999999998
2.933
3.1605
10152:
3.473
3.9835000000000003
3.883
10153:
3.613
2.3895
3.4395
10154:
3.7275
3.1325
2.8705
10155:
3.9985
3.4080000000000004
3.383
10156:
3.4825
3.5665
3.0515
10157:
3.4859999999999998
3.8185000000000002
3.686
10158:
3.827
3.2205000000000004
3.5665
10159:
3.7039999999999997
4.377
3.4835000000000003
10161:
3.5965
3.5564999999999998
4.1815
10162:
3.622
4.0695
3.6505
10165:
3.1559999999999997
3.3405
3.554
10166:
3.1025
2.6605
3.0635
10167:
3.3760000000000003
3.301
10168:
10169:
4.0665
3.4115
3.011
1017:
4.2475000000000005
4.3535
3.9370000000000003
10170:
3.6020000000000003
3.213
3.7640000000000002
10171:
3.6945
3.432
3.6574999999999998
10172:
3.6725
3.5
4.1695
10173:
3.4859999999999998
3.2904999999999998
3.295
10174:
3.7205000000000004
3.4645
3.9435000000000002
10175:
3.3354999999999997
3.3045
3.556
10176:
4.0135
3.851
3.8745000000000003
10177:
3.364
2.8605
2.7795
10178:
3.8215000000000003
3.0745
3.3045
10179:
3.879
3.8315
3.7005
1018:
2.7015000000000002
3.785
3.5135
10181:
2.7925
3.613
3.7145
10182:
3.7035
3.388
3.5564999999999998
10185:
3.569
3.582
3.3280000000000003
10186:
3.3890000000000002
3.68
3.755
10188:
3.661
3.5955
10189:
10191:
3.5235000000000003
3.5495
3.589
10193:
3.7750000000000004
3.8425
3.7395
10196:
2.8125
3.029
3.375
10198:
3.6045
3.443
3.4240000000000004
10199:
3.5140000000000002
3.6835000000000004
102:
1020:
4.2765
4.112
4.4015
10200:
3.3355
3.6180000000000003
3.4135
10203:
3.6739999999999995
3.331
3.5065
10204:
2.902
3.3120000000000003
3.5060000000000002
10205:
2.973
3.3905000000000003
2.991
10206:
3.0125
3.0145
3.0015
10207:
3.403
2.9555
3.8015
1021:
3.4829999999999997
3.477
3.5715
10212:
3.491
3.739
4.0495
10213:
3.629
3.7885
3.422
10214:
3.831
3.834
3.617
10217:
3.1710000000000003
3.0265
3.1835
10218:
3.0865
3.3005
3.2115
10219:
2.981
2.568
3.1155
1022:
3.034
3.628
3.3514999999999997
10220:
3.1665
3.374
10221:
10222:
3.5895
4.402
4.152
10223:
3.761
3.616
3.8245
10226:
3.3285
3.5445
3.6135
10227:
3.9895
4.2155000000000005
3.753
1023:
3.6385
3.6015
3.6420000000000003
10230:
3.641
3.0555
3.795
10231:
4.0515
3.5305
3.864
10234:
3.6755000000000004
3.2935
3.2365000000000004
10239:
3.826
3.8015
3.842
1024:
3.702
3.4985
3.4805
10240:
3.7089999999999996
3.4539999999999997
3.6185
10241:
3.694
3.9475
3.262
10242:
3.4850000000000003
3.8665000000000003
3.2945
10243:
3.4915000000000003
3.673
3.0435
10246:
3.4905
3.3655
3.9905
1025:
3.7924999999999995
3.162
2.8665
10250:
3.2315
3.199
3.539
10251:
3.8725
3.75
4.0495
10253:
3.152
3.5335
3.2279999999999998
10254:
3.5765000000000002
3.2969999999999997
4.0120000000000005
10255:
3.8440000000000003
3.8955
4.0855
10256:
2.945
3.3315
3.3175
10257:
3.3819999999999997
3.567
3.4035
10259:
3.722
3.892
3.5945
1026:
3.55
3.3965
3.4905
10262:
3.2904999999999998
3.2485
10263:
10265:
4.036
3.9459999999999997
4.4895
10266:
3.9814999999999996
3.1479999999999997
3.3245
10267:
3.464
3.7504999999999997
3.3415
10268:
3.192
3.4535
3.2905
10271:
3.8305000000000002
3.5324999999999998
3.5175
10272:
4.029
3.35
3.6305
10273:
3.588
3.928
3.4165
10274:
4.2825
3.9715
3.8339999999999996
10275:
3.5805
3.2925
3.691
10276:
3.76
4.151
3.8394999999999997
10277:
3.77
3.856
3.708
10278:
3.6805000000000003
3.4645
3.0815
10279:
4.2215
3.8049999999999997
3.6470000000000002
1028:
3.456
2.662
3.1695
10280:
3.799
3.9989999999999997
3.9154999999999998
10281:
3.984
3.5220000000000002
3.5335
10282:
3.5715000000000003
3.3925
3.9175000000000004
10283:
3.996
4.3759999999999994
4.0465
10284:
3.792
3.645
3.7995
10285:
3.391
3.5345
3.424
10286:
3.203
4.0255
3.752
10287:
3.4555
4.249
3.931
10288:
3.216
3.281
3.1470000000000002
10289:
3.5895
3.385
3.2039999999999997
1029:
3.1635
3.38
3.575
10290:
3.6275
3.6015
3.5620000000000003
10292:
3.7465
4.0885
3.7475
10293:
3.527
3.0629999999999997
3.8055000000000003
10294:
3.859
3.4255
3.814
10295:
2.858
3.1615
2.7275
10296:
3.509
3.5875
10297:
10298:
3.7185
3.347
4.01
10299:
3.729
3.9559999999999995
3.4699999999999998
103:
4.07
3.971
3.8555
1030:
2.971
3.8339999999999996
10300:
10301:
3.2984999999999998
3.4450000000000003
3.459
10302:
4.0215
3.7569999999999997
3.5789999999999997
10305:
2.6245000000000003
2.908
2.7645
10306:
3.636
3.2385
3.8145
1031:
4.077999999999999
4.0865
4.071
10311:
3.5765000000000002
3.851
3.696
10312:
2.7515
2.7685
2.52
10313:
4.7379999999999995
3.7005
4.034
10314:
2.8825000000000003
3.8555
3.2744999999999997
10316:
3.5389999999999997
3.6905
4.4435
10317:
3.3265000000000002
3.7205000000000004
4.0855
10318:
3.635
4.1155
4.218
10320:
3.189
3.507
3.3585000000000003
10321:
4.071
3.7925000000000004
4.471
10322:
3.467
3.372
3.114
10325:
3.7
3.964
3.6615
10328:
3.91
3.67
4.1055
10329:
3.436
3.473
2.6885000000000003
1033:
3.104
2.6015
10330:
10331:
3.261
3.1635
3.2285
10333:
3.4080000000000004
3.604
3.6189999999999998
10334:
4.037
3.5599999999999996
3.6695
10337:
3.3625
3.6165
3.4855
10338:
3.8555
3.3825000000000003
3.488
10339:
3.3
3.3644999999999996
4.2165
10341:
3.259
3.6639999999999997
3.5155
10344:
3.6609999999999996
3.524
3.581
10345:
3.4785000000000004
4.045
3.4035
10346:
3.224
3.2655000000000003
10347:
10348:
3.3225
3.452
3.016
10349:
3.402
3.817
3.0585
1035:
3.5625
3.939
3.5335
10350:
3.3
3.4930000000000003
3.7415000000000003
10351:
2.9095
3.3625
2.7115
10352:
4.292
4.0915
4.1884999999999994
10353:
3.7415000000000003
3.556
3.474
10354:
3.8440000000000003
3.894
3.814
10357:
3.9019999999999997
4.3975
4.134499999999999
10358:
3.2119999999999997
3.4275
3.269
10359:
3.649
3.5404999999999998
3.4375
1036:
3.3449999999999998
3.507
3.499
10360:
3.9045
3.8165
3.64
10361:
3.7375
4.086
4.103
10362:
3.3595
3.5010000000000003
3.258
10363:
3.7800000000000002
3.8395
3.7625
10364:
3.5615
3.2344999999999997
3.4745
10365:
3.8449999999999998
4.1225000000000005
3.5645
10366:
3.3435
3.0054999999999996
2.9219999999999997
10367:
4.0455000000000005
3.6305
3.7785
10369:
4.134
4.0105
4.534
1037:
2.836
3.8485
3.463
10370:
3.3045
3.38
3.1185
10371:
3.4675000000000002
3.653
3.8615
10372:
3.6740000000000004
3.455
3.768
10373:
2.8354999999999997
2.8095
2.5585
10374:
3.51
3.5454999999999997
3.2874999999999996
10375:
3.456
3.4364999999999997
4.1125
10376:
3.607
3.538
3.4135
10377:
2.947
2.545
2.6814999999999998
10378:
3.81
3.939
3.7489999999999997
10379:
3.8285
3.3475
3.5605
1038:
3.6885000000000003
3.6180000000000003
3.3305
10380:
3.8015
3.5545
3.8625000000000003
10381:
4.1665
3.4995000000000003
3.6325000000000003
10382:
3.5620000000000003
3.8914999999999997
3.4225000000000003
10383:
3.617
3.961
3.267
10385:
3.513
3.7345
3.8400000000000003
10386:
3.352
3.684
10387:
10388:
4.109
3.202
3.2425
10389:
3.4459999999999997
3.4524999999999997
3.504
1039:
3.4955
3.8385
3.2755
10390:
3.7750000000000004
3.9935
3.7105
10391:
3.4530000000000003
3.4530000000000003
3.439
10392:
3.676
3.3715
3.001
10393:
2.7465
3.379
3.48
10394:
3.3609999999999998
3.379
3.3175
10395:
3.7455
3.739
3.5164999999999997
10396:
3.9205
3.8365
2.816
10397:
3.2085
3.151
3.901
10398:
2.828
2.4885
2.7125
1040:
3.758
3.5709999999999997
3.909
10402:
3.4720000000000004
2.9285
3.5135000000000005
10403:
3.4059999999999997
3.2560000000000002
2.9444999999999997
10406:
4.1434999999999995
3.6835
3.3265000000000002
10407:
3.477
3.202
3.5195
10408:
3.1845
3.2785
3.6014999999999997
10409:
3.833
3.7394999999999996
3.3419999999999996
1041:
3.9855
3.6585
2.8945
10412:
3.7895000000000003
3.5095
3.115
10413:
3.6525
3.6435000000000004
2.7445000000000004
10417:
3.3975
3.423
3.548
10418:
4.4335
4.0925
3.947
10419:
3.234
2.8040000000000003
3.23
1042:
3.464
3.6079999999999997
3.194
10420:
3.322
4.041
3.863
10421:
3.416
3.575
3.1094999999999997
10422:
3.9975
3.675
3.1415
10423:
3.209
3.412
3.551
10424:
3.67
3.8725
3.8975
10425:
3.093
3.686
3.187
10426:
3.1799999999999997
3.4085
3.66
10428:
3.71
3.295
3.899
10429:
3.9995000000000003
3.432
3.191
1043:
3.92
3.794
3.5295
10430:
3.012
3.2925
3.2815
10431:
3.8609999999999998
3.8914999999999997
3.918
10435:
3.6725
3.4115
3.354
10436:
3.4445
3.4320000000000004
3.717
10437:
3.9195
3.6925
3.48
10438:
3.1185
2.9935
2.9515000000000002
10439:
3.9
3.9145
3.3845
1044:
3.3735
3.3135
3.9725
10440:
3.42
3.7800000000000002
3.3645
10441:
3.3495
3.6665
10442:
10447:
3.448
3.6205
3.6385
10448:
3.0675
3.3609999999999998
10449:
1045:
4.0
3.3315
4.056
10450:
3.469
3.418
3.0105
10451:
4.086
3.886
3.581
10452:
3.4749999999999996
3.3005
10453:
10456:
3.3825000000000003
3.2795
3.7265
10457:
3.3659999999999997
3.2175000000000002
10458:
10459:
4.229
3.7645
3.431
1046:
3.476
3.4269999999999996
2.9265
10460:
4.1419999999999995
3.7835
3.5075000000000003
10461:
4.118
3.519
3.8545
10464:
3.4555
4.189
4.0815
10465:
3.974
3.5525
3.7640000000000002
10466:
3.8289999999999997
3.742
4.293
10467:
3.5164999999999997
3.251
3.4505
10472:
3.0315
3.734
3.6944999999999997
10473:
3.563
3.3055000000000003
3.374
10474:
3.4635
3.637
3.439
10477:
3.6455
3.6885000000000003
4.218
1048:
3.177
2.9725
3.3985000000000003
10480:
3.6624999999999996
3.198
3.5185
10483:
2.9745
2.884
3.0919999999999996
10484:
3.3385
3.3289999999999997
10485:
10486:
3.844
3.9235
3.1725000000000003
10487:
3.307
3.1639999999999997
2.8395
10488:
3.3230000000000004
3.1565000000000003
3.593
10490:
2.9215
3.516
3.321
10491:
3.7755
3.88
3.963
10492:
3.5700000000000003
3.5725
3.7315
10493:
3.7664999999999997
3.8365
3.3305
10494:
3.981
3.107
3.1535
105:
3.2575000000000003
3.448
3.3360000000000003
1050:
4.0
4.22
3.7475
10500:
3.296
3.603
10501:
10504:
4.066
3.752
3.4764999999999997
10505:
3.3965
3.527
3.5225
10506:
3.6224999999999996
3.6985
3.401
10509:
3.5090000000000003
3.822
3.5765000000000002
1051:
4.0815
3.9370000000000003
3.793
10510:
3.533
3.6655
3.007
10511:
3.4314999999999998
3.1799999999999997
3.8235
10512:
3.8375
3.8635
3.7195
10513:
2.855
3.343
3.4610000000000003
10514:
3.6799999999999997
2.84
10515:
10517:
2.933
3.1785
2.564
10518:
3.641
2.1975
4.1975
10519:
4.1435
3.896
3.6355000000000004
1052:
2.99
3.449
3.59
10520:
3.1870000000000003
3.035
3.6315
10521:
3.3365
3.0985
3.604
10522:
3.6745
3.3845
3.1835
10524:
3.5330000000000004
3.5540000000000003
10525:
10526:
3.362
3.573
3.5925
10527:
4.046
3.3255
3.8405
10528:
3.4135
3.659
10529:
1053:
2.846
3.8440000000000003
10530:
10531:
3.428
3.1075
3.3200000000000003
10532:
3.5805
3.836
3.373
10536:
3.8015
4.152
3.8049999999999997
10537:
3.6045
3.324
3.2874999999999996
10538:
3.624
3.58
3.93
10539:
3.6745
3.7489999999999997
3.988
10545:
3.745
3.6385
3.817
10546:
3.2009999999999996
2.763
2.7405
10547:
3.6775
3.4275
3.3875
10550:
2.8265000000000002
3.5105
4.1185
10551:
3.292
2.546
3.3005
10552:
3.8369999999999997
4.1899999999999995
3.628
10554:
4.0615000000000006
3.7925
4.1315
10555:
3.069
3.0225
3.4095
10556:
3.4400000000000004
4.346
3.746
10559:
3.8625
3.9314999999999998
3.4855
1056:
3.584
3.2715
3.1105
10560:
4.019
3.7865
3.9235
10561:
3.3305
3.518
3.7800000000000002
10562:
3.8080000000000003
3.0945
3.33
10564:
3.514
3.5925
3.4379999999999997
10570:
3.1470000000000002
3.8520000000000003
3.5465
10571:
3.064
3.0694999999999997
3.3754999999999997
10574:
3.767
3.5075
3.879
10575:
3.8325000000000005
3.4665
4.237500000000001
10576:
3.4975
3.808
3.6239999999999997
10577:
3.4015
3.241
2.5
10578:
3.393
3.5025
3.8930000000000002
10579:
3.4219999999999997
3.0945
3.107
1058:
3.6185
3.7270000000000003
3.475
10580:
4.537
4.2295
4.13
10581:
3.247
3.2645
3.3015
10582:
3.2065
3.457
3.3035
10583:
3.9475
3.4240000000000004
3.6885000000000003
10584:
3.6064999999999996
3.544
3.19
10589:
3.6559999999999997
3.8025
3.4505
1059:
1.4355
2.5175
2.67
10592:
3.202
3.4495
3.4985
10593:
3.925
3.4124999999999996
3.9050000000000002
10594:
3.3754999999999997
3.7844999999999995
3.447
10595:
3.6715
3.7125
3.947
10596:
3.3015
3.4555
3.4105
10597:
4.125
4.1775
10598:
10599:
3.8475
3.7075
4.2245
106:
3.9890000000000003
4.021
3.8235
1060:
3.077
3.1335
3.374
10600:
3.556
3.57
3.456
10601:
3.1835
3.7880000000000003
3.6595
10602:
2.7245
3.18
3.4355
10603:
3.936
3.676
3.8215000000000003
10604:
3.665
3.4485
3.4805
10605:
3.5090000000000003
3.4585
3.832
10606:
3.4865
3.9265
3.9335
10607:
3.9105
3.9635
3.667
10608:
3.6175
3.536
3.5815
10609:
4.2255
3.787
4.205
1061:
3.276
3.2750000000000004
3.8105
10612:
3.3405
4.1
3.8215
10613:
3.3085
3.616
3.523
10614:
3.5985
3.6695
2.9335
10615:
3.4745
3.848
3.3520000000000003
10616:
3.0685000000000002
3.7344999999999997
3.4
10617:
3.6185
3.68
3.3925
10619:
3.4154999999999998
3.328
3.4465
1062:
3.0845000000000002
3.0845000000000002
4.0055
10620:
3.862
3.787
3.7705
10621:
3.6235
3.613
4.3085
10622:
3.4539999999999997
3.447
3.5395
10624:
3.5195
3.151
3.8164999999999996
10625:
3.8465
3.6295
3.5045
10626:
3.202
3.2365
3.8365
10627:
3.4325
3.6725000000000003
3.3135000000000003
10628:
3.474
3.021
3.0620000000000003
1063:
3.621
3.341
3.6265
10630:
3.5359999999999996
3.5854999999999997
3.328
10633:
3.086
3.149
2.779
10634:
3.5540000000000003
3.8785
3.738
10635:
2.6075
3.3659999999999997
3.4715
10636:
3.9515000000000002
3.8805000000000005
3.997
10637:
4.462
4.2365
3.95
10639:
3.3645
3.5735
3.565
1064:
2.9139999999999997
2.9509999999999996
10640:
10641:
3.9014999999999995
3.2775
3.2379999999999995
10642:
3.0725
3.0869999999999997
3.375
10643:
3.747
4.4505
4.1295
10644:
4.7265
4.1455
4.300000000000001
10645:
3.3695
3.751
3.5065
10646:
3.4785000000000004
3.6189999999999998
3.8445
10647:
3.9485
3.4779999999999998
3.2485
10650:
3.5185
3.3935
3.299
10651:
3.1085
3.222
3.2
10655:
3.446
3.606
3.8795
10656:
3.9645
3.4645
10657:
10659:
3.3265000000000002
3.458
3.1029999999999998
1066:
3.4835
3.8455
3.6995
10660:
3.093
4.0385
3.5540000000000003
10661:
3.602
4.054
3.5309999999999997
0.99
